{
    "version"    : "1.3.0.0",
    "description": "FolderMonitor helps you monitor what happens in a folder",
    "homepage"   : "https://www.nodesoft.com/foldermonitor",
    "license"    : "Unkown",
    "url"        : "https://www.nodesoft.com/foldermonitor/download#/dl.zip",
    "hash"       : "ED69942B985E063A3343B25076C5B494A6C24FAFFB87B5B2EFE1ABE5D58ED2ED",
    "bin"        : "FolderMonitor.exe",
    "shortcuts"  : [
        [
            "FolderMonitor.exe",
            "FolderMonitor"
        ]
    ]
}