{
    "version"     : "20210714",
    "description" : "A tiling window manager for Windows",
    "homepage"    : "https://github.com/TimUntersberger/nog",
    "url"         : "https://github.com/TimUntersberger/nog/releases/download/lua-api-improv-release/Nog.zip",
    "hash"        : "85B1370C516B9466C620591E9E30CB58C03A08FF22B166B4C5E5492D95F57645",
    "bin"         : "bin\\nog.exe",
    "pre_install": [
                "Move-Item \"$dir\\Nog\\*\" \"$dir\"",
                "Remove-Item \"$dir\\Nog\" -Force -Recurse"
            ],
    "post_install": "cmd /C mklink /j \"$env:APPDATA\\nog\" \"$dir\""
}
